{
  "profiles": {
    "EGUB.Security.Tests": {
      "commandName": "Project",
      "launchBrowser": true,
      "environmentVariables": {
        "ASPNETCORE_ENVIRONMENT": "Development"
      },
      "applicationUrl": "https://localhost:58749;http://localhost:58750"
    }
  }
}